^C:\USERS\משתמש\DESKTOP\ASSIGNMENTS\YEAR 2\ARCHITECTURE\12_OFEK_HAIMOVICH\EX2\PROC1\EX2_PART1.CPP
C:\USERS\משתמש\DESKTOP\ASSIGNMENTS\YEAR 2\ARCHITECTURE\12_OFEK_HAIMOVICH\EX2\PROC1\X64\DEBUG\VC142.PDB
C:\USERS\משתמש\DESKTOP\ASSIGNMENTS\YEAR 2\ARCHITECTURE\12_OFEK_HAIMOVICH\EX2\PROC1\X64\DEBUG\VC142.IDB
C:\USERS\משתמש\DESKTOP\ASSIGNMENTS\YEAR 2\ARCHITECTURE\12_OFEK_HAIMOVICH\EX2\PROC1\X64\DEBUG\EX2_PART1.OBJ
