^C:\USERS\משתמש\DESKTOP\ASSIGNMENTS\YEAR 2\ARCHITECTURE\12_OFEK_HAIMOVICH\EX2\PROC2\EX2_PART2.CPP
C:\USERS\משתמש\DESKTOP\ASSIGNMENTS\YEAR 2\ARCHITECTURE\12_OFEK_HAIMOVICH\EX2\PROC2\DEBUG\VC142.PDB
C:\USERS\משתמש\DESKTOP\ASSIGNMENTS\YEAR 2\ARCHITECTURE\12_OFEK_HAIMOVICH\EX2\PROC2\DEBUG\VC142.IDB
C:\USERS\משתמש\DESKTOP\ASSIGNMENTS\YEAR 2\ARCHITECTURE\12_OFEK_HAIMOVICH\EX2\PROC2\DEBUG\EX2_PART2.OBJ
